Division,WeightClassKg,Place,Name,Team,BodyweightKg,Best3SquatKg,Best3BenchKg,Best3DeadliftKg,TotalKg,Equipment,Event,Sex,BirthDate
Boys,51.71,1,Eli Saunders,Burton,51.66,149.69,72.57,149.69,371.95,Single-ply,SBD,M,
Boys,51.71,2,Bryant Adams,Altair Rice,48.4,83.91,43.09,113.4,240.4,Single-ply,SBD,M,
Boys,55.79,1,Bryan Maldonado,Wallis Brazos,54.79,154.22,83.91,151.95,390.09,Single-ply,SBD,M,
Boys,55.79,2,Kyler Snell,Grapeland,54.43,124.74,79.38,136.08,340.19,Single-ply,SBD,M,
Boys,55.79,3,James Arrington,Boling,52.44,124.74,68.04,131.54,324.32,Single-ply,SBD,M,
Boys,55.79,4,Thomas Olivier,La Marque,54.75,88.45,54.43,92.99,235.87,Single-ply,SBD,M,
Boys,55.79,DQ,Ryan Rodriguez,Boling,53.93,122.47,,,,Single-ply,SBD,M,
Boys,59.87,1,John Mendoza,Altair Rice,59.6,142.88,95.25,142.88,381.02,Single-ply,SBD,M,
Boys,59.87,2,Gentry Doyle,Flatonia,58.42,147.42,90.72,138.35,376.48,Single-ply,SBD,M,
Boys,59.87,3,Sergio Martinez,Wallis Brazos,56.29,142.88,68.04,149.69,360.61,Single-ply,SBD,M,
Boys,59.87,4,Mason Greenwood,Flatonia,59.15,124.74,72.57,115.67,312.98,Single-ply,SBD,M,
Boys,59.87,5,Tamarion Turner,Altair Rice,59.69,115.67,61.23,129.27,306.17,Single-ply,SBD,M,
Boys,59.87,6,Colton Broesche,Burton,57.24,108.86,54.43,113.4,276.69,Single-ply,SBD,M,
Boys,59.87,DQ,Mathew Genzer,Boling,58.56,,,,,Single-ply,SBD,M,
Boys,59.87,DQ,Damian Paniagua,Boling,59.47,124.74,65.77,,,Single-ply,SBD,M,
Boys,67.13,1,Alerique Medrano,Boling,62.41,183.7,90.72,183.7,458.13,Single-ply,SBD,M,
Boys,67.13,2,Kejun Wilson,Altair Rice,63.59,158.76,81.65,174.63,415.04,Single-ply,SBD,M,
Boys,67.13,3,Landon Williams,Hempstead,67.13,124.74,72.57,170.1,367.41,Single-ply,SBD,M,
Boys,67.13,4,Payton Pavlicek,Columbus,66.27,149.69,79.38,136.08,365.14,Single-ply,SBD,M,
Boys,67.13,5,Adam Frey,Columbus,66.41,136.08,81.65,138.35,356.07,Single-ply,SBD,M,
Boys,67.13,6,Christopher Prado,Wallis Brazos,61.82,122.47,72.57,151.95,347,Single-ply,SBD,M,
Boys,67.13,7,Brayden Hayzelka,Wallis Brazos,61.69,133.81,79.38,127.01,340.19,Single-ply,SBD,M,
Boys,67.13,8,Brady Griffin,Burton,64.77,111.13,63.5,142.88,317.51,Single-ply,SBD,M,
Boys,67.13,9,Keaton Borgstedt,Flatonia,61.42,102.06,54.43,136.08,292.57,Single-ply,SBD,M,
Boys,67.13,10,John Johnson,Hempstead,66.54,92.99,68.04,127.01,288.03,Single-ply,SBD,M,
Boys,67.13,11,Max O'Brain,Bellville,66.41,70.31,43.09,79.38,192.78,Single-ply,SBD,M,
Boys,67.13,DQ,Corey Lewis,Columbus,67.04,156.49,,,,Single-ply,SBD,M,
Boys,74.84,1,Joseph Townsend,Wallis Brazos,70.99,244.94,127.01,249.48,621.42,Single-ply,SBD,M,
Boys,74.84,2,Aiden Gonzales,Flatonia,74.71,192.78,115.67,185.97,494.42,Single-ply,SBD,M,
Boys,74.84,3,Juan Carlos Hernandez,Altair Rice,68.49,167.83,122.47,199.58,489.88,Single-ply,SBD,M,
Boys,74.84,4,Anthony Scribellito,Hallettsville,72.67,188.24,102.06,163.29,453.59,Single-ply,SBD,M,
Boys,74.84,5,Jyier Jones,La Marque,69.99,154.22,102.06,170.1,426.38,Single-ply,SBD,M,
Boys,74.84,6,Felipe Olmos,Flatonia,69.94,156.49,102.06,145.15,403.7,Single-ply,SBD,M,
Boys,74.84,7,Trintin Hyden,Hempstead,69.31,138.35,111.13,142.88,392.36,Single-ply,SBD,M,
Boys,74.84,8,Aaron Matura,Flatonia,71.71,138.35,88.45,158.76,385.55,Single-ply,SBD,M,
Boys,74.84,9,Gauge McCain,Wallis Brazos,73.48,142.88,86.18,156.49,385.55,Single-ply,SBD,M,
Boys,74.84,10,Zane Zbranek,Altair Rice,68.72,140.61,81.65,158.76,381.02,Single-ply,SBD,M,
Boys,74.84,11,Tommy Linney,Bellville,71.8,102.06,61.23,113.4,276.69,Single-ply,SBD,M,
Boys,74.84,DQ,Logan Stratiou,Boling,71.44,188.24,,,,Single-ply,SBD,M,
Boys,74.84,DQ,Haven Pennington,Hempstead,74.57,,,,,Single-ply,SBD,M,
Boys,74.84,DQ,Jonathan Taylor,Hempstead,73.84,,,,,Single-ply,SBD,M,
Boys,82.1,1,Kai Janice,La Marque,75.89,213.19,136.08,199.58,548.85,Single-ply,SBD,M,
Boys,82.1,2,Michael Flores,Altair Rice,81.92,179.17,122.47,215.46,517.1,Single-ply,SBD,M,
Boys,82.1,3,Camron Alamilla,Hallettsville,81.24,188.24,111.13,190.51,489.88,Single-ply,SBD,M,
Boys,82.1,4,Phillip Ramirez,Flatonia,81.96,192.78,108.86,185.97,487.61,Single-ply,SBD,M,
Boys,82.1,5,Dyren Johnson,Altair Rice,78.83,156.49,92.99,181.44,430.91,Single-ply,SBD,M,
Boys,82.1,6,Garrett Willever,Hempstead,82.05,165.56,102.06,158.76,426.38,Single-ply,SBD,M,
Boys,82.1,7,Noah Trevino,Bellville,77.29,158.76,111.13,149.69,419.57,Single-ply,SBD,M,
Boys,82.1,8,Samuel Mieth,Wallis Brazos,76.93,127.01,83.91,149.69,360.61,Single-ply,SBD,M,
Boys,82.1,9,Joan Nava,Hempstead,75.07,124.74,92.99,122.47,340.19,Single-ply,SBD,M,
Boys,89.81,1,Jesse Arrington,Boling,86.86,260.82,131.54,235.87,628.23,Single-ply,SBD,M,
Boys,89.81,2,Preston Lee,Boling,87.32,190.51,122.47,233.6,546.58,Single-ply,SBD,M,
Boys,89.81,3,Gabriel Lopez,Hempstead,89.63,183.7,127.01,167.83,478.54,Single-ply,SBD,M,
Boys,89.81,4,Edwin Almaguer,Hempstead,87.95,142.88,102.06,172.37,417.3,Single-ply,SBD,M,
Boys,89.81,5,Dayton Prado,Wallis Brazos,83.69,142.88,95.25,147.42,385.55,Single-ply,SBD,M,
Boys,89.81,6,Brady Copley,Hallettsville,84.73,136.08,79.38,142.88,358.34,Single-ply,SBD,M,
Boys,89.81,7,Ruston Krenek,Altair Rice,84.91,113.4,81.65,136.08,331.12,Single-ply,SBD,M,
Boys,89.81,8,Elijah Hurt,La Marque,86.55,106.59,65.77,102.06,274.42,Single-ply,SBD,M,
Boys,89.81,DQ,Zach Herlong,Bellville,84.82,136.08,,,,Single-ply,SBD,M,
Boys,89.81,DQ,Gage Staton,Hallettsville,83.91,,,,,Single-ply,SBD,M,
Boys,99.79,1,Kasey Zientek,Wallis Brazos,97.11,274.42,149.69,229.06,653.17,Single-ply,SBD,M,
Boys,99.79,2,Mark Glover,Altair Rice,94.35,233.6,138.35,238.14,610.08,Single-ply,SBD,M,
Boys,99.79,3,Cory Richardson,Bellville,97.48,210.92,136.08,176.9,523.9,Single-ply,SBD,M,
Boys,99.79,4,Morgan Machac,Altair Rice,98.43,197.31,142.88,181.44,521.63,Single-ply,SBD,M,
Boys,99.79,5,Joshua Martin,Flatonia,98.11,197.31,133.81,181.44,512.56,Single-ply,SBD,M,
Boys,99.79,6,Jake Miles,Bellville,97.98,197.31,124.74,165.56,487.61,Single-ply,SBD,M,
Boys,99.79,7,Seth Wherry,Wallis Brazos,96.07,176.9,113.4,188.24,478.54,Single-ply,SBD,M,
Boys,99.79,8,Allec Mizera,Hallettsville,93.17,188.24,97.52,185.97,471.74,Single-ply,SBD,M,
Boys,99.79,9,Hayden Minks,Wallis Brazos,92.4,156.49,106.59,188.24,451.32,Single-ply,SBD,M,
Boys,99.79,10,Isaac Vasquez,Flatonia,98.84,136.08,113.4,170.1,419.57,Single-ply,SBD,M,
Boys,99.79,11,Khristopher Toran,Flatonia,90.36,140.61,97.52,145.15,383.29,Single-ply,SBD,M,
Boys,99.79,12,Kohen Johnson,Bellville,98.25,142.88,92.99,136.08,371.95,Single-ply,SBD,M,
Boys,99.79,13,Caleb Beeson,La Marque,89.9,136.08,86.18,142.88,365.14,Single-ply,SBD,M,
Boys,99.79,14,Preston Ramsey,Hallettsville,91.72,133.81,68.04,145.15,347,Single-ply,SBD,M,
Boys,99.79,15,Justin Strauss,Columbus,97.89,117.93,72.57,149.69,340.19,Single-ply,SBD,M,
Boys,99.79,16,Jesus Medina,Columbus,95.93,99.79,63.5,113.4,276.69,Single-ply,SBD,M,
Boys,109.77,1,Cody Noriega,Snook,108.68,240.4,145.15,219.99,605.55,Single-ply,SBD,M,
Boys,109.77,2,Oscar Ramirez,Columbus,102.15,226.8,120.2,217.72,564.72,Single-ply,SBD,M,
Boys,109.77,3,Eric Flores,Burton,108.36,213.19,131.54,217.72,562.45,Single-ply,SBD,M,
Boys,109.77,4,Martin Arriaga,Boling,101.47,226.8,115.67,172.37,514.83,Single-ply,SBD,M,
Boys,109.77,5,Sean Sims,Altair Rice,100.7,179.17,127.01,181.44,487.61,Single-ply,SBD,M,
Boys,109.77,6,Maxwell Sanja,La Marque,107.32,176.9,106.59,197.31,480.81,Single-ply,SBD,M,
Boys,109.77,7,Jeremiah Stance,La Marque,108.68,167.83,113.4,170.1,451.32,Single-ply,SBD,M,
Boys,109.77,DQ,Robert Warnock,La Marque,105.1,138.35,,,,Single-ply,SBD,M,
Boys,109.77,DQ,Cade Klecka,Bellville,106,113.4,,,,Single-ply,SBD,M,
Boys,124.74,1,Sam Hermes,Hallettsville,112.08,235.87,131.54,217.72,585.13,Single-ply,SBD,M,
Boys,124.74,2,Ethan Luna,Altair Rice,114.58,208.65,124.74,188.24,521.63,Single-ply,SBD,M,
Boys,124.74,3,Randy Greenwood,La Marque,116.21,197.31,108.86,174.63,480.81,Single-ply,SBD,M,
Boys,124.74,4,Patrick Tavary,Burton,118.34,151.95,61.23,149.69,362.87,Single-ply,SBD,M,
Boys,139.71,1,Raybert Williamson,Boling,133.17,317.51,145.15,226.8,689.46,Single-ply,SBD,M,
Boys,139.71,2,Seth Bear,Boling,131.45,249.48,142.88,222.26,614.62,Single-ply,SBD,M,
Boys,139.71,3,Davon Walles,Flatonia,126.46,249.48,136.08,197.31,582.87,Single-ply,SBD,M,
Boys,,NS,Taden Alvarado,Flatonia,,,,,,Single-ply,SBD,M,
Boys,,NS,Stephen Christoph,Columbus,,,,,,Single-ply,SBD,M,
Boys,,NS,Tracee Steptoe,Hempstead,,,,,,Single-ply,SBD,M,
Boys,,NS,Antonio Cano,Boling,,,,,,Single-ply,SBD,M,
Boys,,NS,Angel Gonzalez #7,Altair Rice,,,,,,Single-ply,SBD,M,
Boys,,NS,Victor Carrillo,Bellville,,,,,,Single-ply,SBD,M,
Boys,,NS,Ralph Herrera,Altair Rice,,,,,,Single-ply,SBD,M,
Boys,,NS,James Johnson,Snook,,,,,,Single-ply,SBD,M,
