Division,WeightClassKg,Place,Name,Team,BodyweightKg,Best3SquatKg,Best3BenchKg,Best3DeadliftKg,TotalKg,Equipment,Event,Sex,BirthDate
Boys,51.71,1,Daniel Gutierrez,Brownsville Hanna,50.17,108.86,56.7,111.13,276.69,Single-ply,SBD,M,
Boys,55.79,1,Joseph Ramirez,Brownsville Veterans Memorial,55.7,145.15,90.72,176.9,412.77,Single-ply,SBD,M,
Boys,59.87,1,Anthony Ayala,Brownsville Veterans Memorial,59.06,176.9,122.47,185.97,485.34,Single-ply,SBD,M,
Boys,59.87,2,Ethan Vidal,Brownsville Hanna,58.97,133.81,102.06,156.49,392.36,Single-ply,SBD,M,
Boys,59.87,3,Josh Perez,Los Fresnos,57.79,149.69,70.31,154.22,374.21,Single-ply,SBD,M,
Boys,67.13,1,Gilbert Garcia,Brownsville Hanna,63.23,206.38,102.06,208.65,517.1,Single-ply,SBD,M,
Boys,67.13,2,Victor Rodriguez,Los Fresnos,64.59,199.58,124.74,185.97,510.29,Single-ply,SBD,M,
Boys,67.13,3,Isaiah Perales,Harlingen,66.41,181.44,124.74,183.7,489.88,Single-ply,SBD,M,
Boys,67.13,4,Matthew Elizondo,Harlingen,60.87,170.1,127.01,176.9,474,Single-ply,SBD,M,
Boys,67.13,5,Devin Trevino,Brownsville Hanna,67.13,142.88,90.72,149.69,383.29,Single-ply,SBD,M,
Boys,67.13,DQ,Carlos Vasquez,Brownsville Hanna,63.23,174.63,97.52,,,Single-ply,SBD,M,
Boys,74.84,1,Sam Burton,Los Fresnos,69.31,235.87,120.2,233.6,589.67,Single-ply,SBD,M,
Boys,74.84,2,Moises Zuniga,Brownsville Hanna,73.03,224.53,120.2,199.58,544.31,Single-ply,SBD,M,
Boys,74.84,3,Robert Stone,Brownsville Veterans Memorial,73.66,185.97,131.54,204.12,521.63,Single-ply,SBD,M,
Boys,74.84,4,Raul Ramirez,Brownsville Hanna,73.57,190.51,106.59,190.51,487.61,Single-ply,SBD,M,
Boys,74.84,5,Isaac Moreno,Brownsville Veterans Memorial,74.66,183.7,99.79,192.78,476.27,Single-ply,SBD,M,
Boys,74.84,6,Adrain Gonzalez,Harlingen,72.76,124.74,102.06,170.1,396.89,Single-ply,SBD,M,
Boys,82.1,1,Justin Rosas,Brownsville Veterans Memorial,80.01,249.48,147.42,217.72,614.62,Single-ply,SBD,M,
Boys,82.1,2,Bono Santiesteban,Los Fresnos,76.93,219.99,124.74,213.19,557.92,Single-ply,SBD,M,
Boys,82.1,3,Fabian Carrelero,Los Fresnos,79.29,199.58,129.27,167.83,496.68,Single-ply,SBD,M,
Boys,82.1,4,Frank Quintero,Los Fresnos,79.29,190.51,97.52,183.7,471.74,Single-ply,SBD,M,
Boys,82.1,5,Tristan Lopez,Brownsville Veterans Memorial,78.93,142.88,106.59,176.9,426.38,Single-ply,SBD,M,
Boys,89.81,1,Zeke Aguilar,Los Fresnos,88.81,247.21,145.15,224.53,616.89,Single-ply,SBD,M,
Boys,89.81,2,Sebastian Lozano,Brownsville Hanna,88.09,238.14,158.76,201.85,598.74,Single-ply,SBD,M,
Boys,89.81,3,Kian Torres,Harlingen,82.83,219.99,124.74,217.72,562.45,Single-ply,SBD,M,
Boys,89.81,4,Thomas Larios,Harlingen,88,163.29,106.59,163.29,433.18,Single-ply,SBD,M,
Boys,99.79,1,Izaiah Bell,Harlingen,96.98,219.99,147.42,206.38,573.79,Single-ply,SBD,M,
Boys,99.79,DQ,Eric Zamora,Harlingen,92.71,,,,,Single-ply,SBD,M,
Boys,109.77,DQ,Aiden Villanueva,Brownsville Hanna,108.68,,,,,Single-ply,SBD,M,
Boys,139.71,1,Andres Avila,Harlingen,126.1,219.99,156.49,206.38,582.87,Single-ply,SBD,M,
Boys,139.71,2,Ray Holloman,Brownsville Veterans Memorial,130,204.12,147.42,215.46,566.99,Single-ply,SBD,M,
Boys,139.71,3,Derek Perez,Harlingen,134.08,226.8,133.81,206.38,566.99,Single-ply,SBD,M,
Boys,139.71,4,Anthony Johnson,Harlingen,134.72,188.24,138.35,197.31,523.9,Single-ply,SBD,M,
Boys,139.71,5,Roy Reyna,Harlingen,131.72,188.24,129.27,183.7,501.22,Single-ply,SBD,M,
Boys,139.71+,1,German Woo,Brownsville Hanna,147.78,317.51,158.76,226.8,703.07,Single-ply,SBD,M,
Boys,139.71+,2,Sergio Hernandez,Brownsville Hanna,156.49,165.56,102.06,158.76,426.38,Single-ply,SBD,M,
