Division,WeightClassKg,Place,Name,Team,BodyweightKg,Best3SquatKg,Best3BenchKg,Best3DeadliftKg,TotalKg,Equipment,Event,Sex,BirthDate
Boys,51.71,1,Jonathan Ortega,Winona,46.08,79.38,43.09,90.72,213.19,Single-ply,SBD,M,
Boys,55.79,1,Charlie Sawyer,Frankston,55.79,129.27,74.84,129.27,333.39,Single-ply,SBD,M,
Boys,55.79,2,Vicente Ordorica,Winona,55.34,90.72,74.84,102.06,267.62,Single-ply,SBD,M,
Boys,55.79,3,Juan Ordorica,Winona,53.43,,52.16,102.06,154.22,Single-ply,BD,M,
Boys,67.13,1,Anthony Rodriguez,Winona,61.96,111.13,72.57,120.2,303.91,Single-ply,SBD,M,
Boys,67.13,2,Rafael Chavez,Winona,61.05,111.13,70.31,113.4,294.84,Single-ply,SBD,M,
Boys,74.84,1,Justin Birch,Frankston,69.22,170.1,106.59,170.1,446.79,Single-ply,SBD,M,
Boys,74.84,2,Elijah Bergin,Winona,72.67,170.1,83.91,185.97,439.98,Single-ply,SBD,M,
Boys,74.84,3,Cj Kimble,Winona,72.85,142.88,77.11,158.76,378.75,Single-ply,SBD,M,
Boys,82.1,1,Michael Littles,Winona,81.92,179.17,111.13,183.7,474,Single-ply,SBD,M,
Boys,82.1,2,Jayden Nelson,Winona,77.11,142.88,74.84,142.88,360.61,Single-ply,SBD,M,
Boys,89.81,1,Jared Cook,Frankston,85.82,183.7,115.67,183.7,483.08,Single-ply,SBD,M,
Boys,109.77,1,Kalab Remedies,Winona,104.42,183.7,113.4,154.22,451.32,Single-ply,SBD,M,
Boys,109.77,2,Braden Dotson,Frankston,109.04,149.69,70.31,127.01,347,Single-ply,SBD,M,
Boys,124.74,1,Colby Long,Winona,120.84,192.78,106.59,174.63,474,Single-ply,SBD,M,
Boys,139.71,1,Alex Oxford,Frankston,126.19,235.87,142.88,206.38,585.13,Single-ply,SBD,M,
Boys,139.71,2,Stephen Long,Frankston,126.19,158.76,86.18,147.42,392.36,Single-ply,SBD,M,
Boys,139.71+,1,Juan Garcia,Frankston,152.68,188.24,92.99,179.17,460.4,Single-ply,SBD,M,
