Division,WeightClassKg,Place,Name,Team,BodyweightKg,Best3SquatKg,Best3BenchKg,Best3DeadliftKg,TotalKg,Equipment,Event,Sex,BirthDate
Boys,51.71,1,Erik Orta,Victoria West,50.98,156.49,90.72,158.76,405.97,Single-ply,SBD,M,
Boys,51.71,2,John Paul Acosta,Victoria West,51.53,129.27,88.45,154.22,371.95,Single-ply,SBD,M,
Boys,51.71,3,Brandon Perez,Victoria West,50.98,124.74,79.38,142.88,347,Single-ply,SBD,M,
Boys,51.71,4,Victor Roberson,Victoria East,51.44,136.08,63.5,136.08,335.66,Single-ply,SBD,M,
Boys,51.71,5,Cesar Vasquez,Nixon Smiley,49.53,102.06,43.09,111.13,256.28,Single-ply,SBD,M,
Boys,51.71,NS,Aiden Flores,Nixon Smiley,,,,,,Single-ply,SBD,M,
Boys,55.79,1,Tyler Barrientes,Nixon Smiley,55.79,127.01,61.23,108.86,297.1,Single-ply,SBD,M,
Boys,59.87,1,Ceyth Grevey,Victoria East,59.6,188.24,108.86,201.85,498.95,Single-ply,SBD,M,
Boys,59.87,2,Danny Hughston,Cuero,58.88,188.24,92.99,172.37,453.59,Single-ply,SBD,M,
Boys,59.87,3,John Garza,Nixon Smiley,59.87,115.67,63.5,133.81,312.98,Single-ply,SBD,M,
Boys,59.87,4,Adolfo Vasquez,Nixon Smiley,59.87,124.74,68.04,115.67,308.44,Single-ply,SBD,M,
Boys,59.87,5,Adam Rabalais,Victoria St. Joseph,59.87,106.59,56.7,131.54,294.84,Single-ply,SBD,M,
Boys,67.13,1,Mason Gwosdz,Victoria East,66.13,204.12,104.33,170.1,478.54,Single-ply,SBD,M,
Boys,67.13,2,Jason Duran,Victoria St. Joseph,66.86,142.88,99.79,188.24,430.91,Single-ply,SBD,M,
Boys,67.13,3,Jaime Caltzonzin,Victoria West,65.32,158.76,92.99,163.29,415.04,Single-ply,SBD,M,
Boys,67.13,4,Gavin DeLaGarza,Victoria St. Joseph,65.77,136.08,79.38,131.54,347,Single-ply,SBD,M,
Boys,67.13,5,Alex Carreon,Victoria East,64.86,113.4,83.91,124.74,322.05,Single-ply,SBD,M,
Boys,67.13,6,David Goad,Wharton,60.78,90.72,65.77,104.33,260.82,Single-ply,SBD,M,
Boys,74.84,1,Martin Moreno,Nixon Smiley,74.39,233.6,142.88,233.6,610.08,Single-ply,SBD,M,
Boys,74.84,2,Noah Neibrandt,Victoria West,74.48,183.7,115.67,197.31,496.68,Single-ply,SBD,M,
Boys,74.84,3,Tristan Haney,Victoria West,69.4,163.29,120.2,195.04,478.54,Single-ply,SBD,M,
Boys,74.84,4,Jordan Stafford,Victoria East,74.03,165.56,99.79,183.7,449.06,Single-ply,SBD,M,
Boys,74.84,5,Armando Medel,Nixon Smiley,71.94,165.56,90.72,183.7,439.98,Single-ply,SBD,M,
Boys,74.84,6,Jacob Jenicke,Victoria West,72.76,185.97,88.45,158.76,433.18,Single-ply,SBD,M,
Boys,74.84,7,Andrew Morris,Victoria St. Joseph,69.99,163.29,79.38,183.7,426.38,Single-ply,SBD,M,
Boys,74.84,8,Josh Henry,Victoria St. Joseph,71.67,133.81,106.59,165.56,405.97,Single-ply,SBD,M,
Boys,74.84,9,Jermey Griggs,Wharton,69.94,102.06,79.38,117.93,299.37,Single-ply,SBD,M,
Boys,74.84,NS,Eric Rivas,Nixon Smiley,,,,,,Single-ply,SBD,M,
Boys,82.1,1,Cody Baker,Cuero,80.92,244.94,158.76,226.8,630.49,Single-ply,SBD,M,
Boys,82.1,2,Daniel Martinez,Victoria East,81.83,235.87,131.54,215.46,582.87,Single-ply,SBD,M,
Boys,82.1,3,Randal Delgado,Victoria East,80.47,235.87,122.47,199.58,557.92,Single-ply,SBD,M,
Boys,82.1,4,Omar Morales Navarro,Nixon Smiley,81.74,158.76,113.4,204.12,476.27,Single-ply,SBD,M,
Boys,82.1,5,John Cantu,Victoria St. Joseph,82.1,174.63,108.86,185.97,469.47,Single-ply,SBD,M,
Boys,82.1,6,Kamauri Montgomery,Victoria West,81.56,183.7,99.79,183.7,467.2,Single-ply,SBD,M,
Boys,82.1,7,Gabe Weaver,Victoria St. Joseph,80.01,163.29,106.59,183.7,453.59,Single-ply,SBD,M,
Boys,82.1,8,Jose Olvera,Nixon Smiley,80.1,142.88,92.99,151.95,387.82,Single-ply,SBD,M,
Boys,89.81,1,Seth Neibrandt,Victoria West,88.63,265.35,156.49,269.89,691.73,Single-ply,SBD,M,
Boys,89.81,2,Javaree Bacon,Cuero,88.72,258.55,136.08,238.14,632.76,Single-ply,SBD,M,
Boys,89.81,3,Xavier Salazar,Victoria East,88.99,199.58,124.74,244.94,569.26,Single-ply,SBD,M,
Boys,89.81,4,Harrison Crain,Cuero,82.74,167.83,106.59,183.7,458.13,Single-ply,SBD,M,
Boys,89.81,5,Zane Artiaga,Victoria West,84.37,156.49,88.45,181.44,426.38,Single-ply,SBD,M,
Boys,89.81,6,Armando Martinez,Nixon Smiley,88.99,138.35,111.13,158.76,408.23,Single-ply,SBD,M,
Boys,89.81,7,Jericho Cardenas,Wharton,83.91,151.95,92.99,136.08,381.02,Single-ply,SBD,M,
Boys,89.81,8,Aiden Jackson,Victoria St. Joseph,86.09,90.72,45.36,102.06,238.14,Single-ply,SBD,M,
Boys,89.81,NS,Jared Villanueva,Cuero,,,,,,Single-ply,SBD,M,
Boys,99.79,1,Damian Diaz,Victoria West,98.88,240.4,120.2,229.06,589.67,Single-ply,SBD,M,
Boys,99.79,2,Bently Orgis,Victoria East,93.98,204.12,142.88,208.65,555.65,Single-ply,SBD,M,
Boys,99.79,3,Cameron Davis,Bloomington,96.89,192.78,147.42,215.46,555.65,Single-ply,SBD,M,
Boys,99.79,4,Thomas Lopez,Victoria St. Joseph,93.44,199.58,104.33,195.04,498.95,Single-ply,SBD,M,
Boys,99.79,5,Aaron Taylor,Victoria St. Joseph,93.62,165.56,92.99,151.95,410.5,Single-ply,SBD,M,
Boys,99.79,6,Michael Havranek,Bloomington,98.79,165.56,86.18,136.08,387.82,Single-ply,SBD,M,
Boys,99.79,7,Dominic Williams,Wharton,98.34,151.95,106.59,113.4,371.95,Single-ply,SBD,M,
Boys,99.79,DQ,Adrian Sanchez,Wharton,98.34,,,,,Single-ply,SBD,M,
Boys,99.79,DQ,Kevin Zavala,Nixon Smiley,99.61,208.65,124.74,,,Single-ply,SBD,M,
Boys,109.77,1,Hayden Land,Victoria St. Joseph,109.41,233.6,120.2,224.53,578.33,Single-ply,SBD,M,
Boys,109.77,2,Jose Lugo,Victoria East,108.77,226.8,142.88,199.58,569.26,Single-ply,SBD,M,
Boys,109.77,3,Cameron Villa,Cuero,106.5,204.12,115.67,172.37,492.15,Single-ply,SBD,M,
Boys,109.77,4,Connor Cornish,Victoria St. Joseph,105.32,147.42,83.91,183.7,415.04,Single-ply,SBD,M,
Boys,109.77,DQ,David Wingo,Wharton,103.78,113.4,,,,Single-ply,SBD,M,
Boys,124.74,1,Macario Martinez,Victoria East,121.65,288.03,156.49,242.67,687.19,Single-ply,SBD,M,
Boys,124.74,2,Kyle Weghorst,Cuero,116.48,303.91,151.95,208.65,664.51,Single-ply,SBD,M,
Boys,124.74,3,Augustine Muniz,Wharton,114.58,183.7,122.47,163.29,469.47,Single-ply,SBD,M,
Boys,124.74,4,Noah Serrano,Victoria St. Joseph,121.65,154.22,97.52,181.44,433.18,Single-ply,SBD,M,
Boys,124.74,NS,Luis Carlos Islas,Victoria West,,,,,,Single-ply,SBD,M,
Boys,139.71,1,Cooper Kliem,Victoria East,134.9,272.16,142.88,219.99,635.03,Single-ply,SBD,M,
Boys,139.71,2,Camren Body,Cuero,125.78,215.46,129.27,183.7,528.44,Single-ply,SBD,M,
Boys,139.71,3,Alex Brown,Cuero,134.72,226.8,113.4,158.76,498.95,Single-ply,SBD,M,
Boys,139.71,4,Gabe Medina,Victoria St. Joseph,129.18,195.04,106.59,190.51,492.15,Single-ply,SBD,M,
