Division,WeightClassKg,Place,Name,Team,BodyweightKg,Best3SquatKg,Best3BenchKg,Best3DeadliftKg,TotalKg,Equipment,Event,Sex
Boys,51.71,1,Justiss Pilgram,White Oak,42.18,74.84,38.56,86.18,199.58,Single-ply,SBD,M
Boys,59.87,1,Jesse Reeves,White Oak,59.42,113.4,65.77,131.54,310.71,Single-ply,SBD,M
Boys,59.87,2,Gage Allen,Hallsville,59.42,90.72,72.57,102.06,265.35,Single-ply,SBD,M
Boys,59.87,3,Dustin Mccullar,Hallsville,59.42,,,117.93,117.93,Single-ply,D,M
Boys,67.13,1,Reid Bendon,Big Sandy Harmony,64.86,147.42,90.72,133.81,371.95,Single-ply,SBD,M
Boys,67.13,2,Jared Nixon,Big Sandy Harmony,66.22,129.27,,124.74,254.01,Single-ply,SD,M
Boys,67.13,3,Dustin Harrison,White Oak,65.32,,83.91,147.42,231.33,Single-ply,BD,M
Boys,67.13,4,Cameron Conway,Hallsville,62.14,104.33,,117.93,222.26,Single-ply,SD,M
Boys,74.84,1,Dk Calloway,Carthage,72.12,195.04,122.47,197.31,514.83,Single-ply,SBD,M
Boys,74.84,2,Santos Estrada,Hallsville,73.94,181.44,104.33,181.44,467.2,Single-ply,SBD,M
Boys,74.84,3,Hayden Hughes,White Oak,70.76,176.9,99.79,181.44,458.13,Single-ply,SBD,M
Boys,74.84,4,Jesse Navarro,Hallsville,72.57,163.29,102.06,158.76,424.11,Single-ply,SBD,M
Boys,74.84,5,Levi Roberts,Atlanta,72.57,163.29,92.99,154.22,410.5,Single-ply,SBD,M
Boys,74.84,6,Brandon Small,White Oak,68.49,145.15,92.99,158.76,396.89,Single-ply,SBD,M
Boys,74.84,7,Quatron Davis,Hallsville,71.21,147.42,90.72,149.69,387.82,Single-ply,SBD,M
Boys,74.84,8,Brandon Glenn,Big Sandy Harmony,71.21,149.69,88.45,140.61,378.75,Single-ply,SBD,M
Boys,74.84,9,Matt Hosea,Big Sandy Harmony,69.85,136.08,88.45,140.61,365.14,Single-ply,SBD,M
Boys,74.84,10,Sam Ruley,Atlanta,70.31,120.2,97.52,147.42,365.14,Single-ply,SBD,M
Boys,74.84,11,Terry Dickerson,Atlanta,67.59,124.74,74.84,154.22,353.8,Single-ply,SBD,M
Boys,74.84,12,Braden Fleet,Hallsville,69.85,117.93,92.99,140.61,351.53,Single-ply,SBD,M
Boys,74.84,DQ,Jonathon Dorsey,Hallsville,74.84,,,,,Single-ply,SBD,M
Boys,82.1,1,Josh Presson,White Oak,76.66,192.78,113.4,204.12,510.29,Single-ply,SBD,M
Boys,82.1,2,Derek Mccullar,Hallsville,81.19,183.7,113.4,181.44,478.54,Single-ply,SBD,M
Boys,82.1,3,Keoderine Kelly,Atlanta,76.66,154.22,104.33,154.22,412.77,Single-ply,SBD,M
Boys,82.1,4,David Jackson,Carthage,79.92,138.35,83.91,167.83,390.09,Single-ply,SBD,M
Boys,82.1,5,Dexter Ward,Hallsville,81.19,136.08,104.33,111.13,351.53,Single-ply,SBD,M
Boys,82.1,6,Jacob Lindsey,Big Sandy Harmony,75.75,127.01,72.57,131.54,331.12,Single-ply,SBD,M
Boys,82.1,7,Joseph Juarez,Carthage,79.38,131.54,81.65,117.93,331.12,Single-ply,SBD,M
Boys,82.1,8,AJ Rose,Hallsville,77.56,88.45,102.06,136.08,326.59,Single-ply,SBD,M
Boys,89.81,1,Roderick Boyd,Hallsville,87.54,226.8,136.08,204.12,566.99,Single-ply,SBD,M
Boys,89.81,2,Dan Davis,Atlanta,83.01,172.37,102.06,197.31,471.74,Single-ply,SBD,M
Boys,89.81,3,Quintavious Neal,Atlanta,89.81,174.63,86.18,204.12,464.93,Single-ply,SBD,M
Boys,89.81,4,Coby Bradford,Hallsville,87.54,145.15,124.74,170.1,439.98,Single-ply,SBD,M
Boys,89.81,5,Jade Penero,Atlanta,85.28,147.42,86.18,181.44,415.04,Single-ply,SBD,M
Boys,89.81,6,Brandon Freidman,Carthage,87.18,136.08,95.25,145.15,376.48,Single-ply,SBD,M
Boys,89.81,7,Branson Davis,Big Sandy Harmony,86.18,122.47,81.65,140.61,344.73,Single-ply,SBD,M
Boys,99.79,1,Stephen Godwin,Hallsville,93.89,204.12,147.42,204.12,555.65,Single-ply,SBD,M
Boys,99.79,2,Cole Davis #2,Atlanta,92.99,201.85,106.59,192.78,501.22,Single-ply,SBD,M
Boys,99.79,3,Trent Jackson,Carthage,92.9,183.7,111.13,174.63,469.47,Single-ply,SBD,M
Boys,99.79,4,K'Aelin Ware,Carthage,94.53,172.37,92.99,185.97,451.32,Single-ply,SBD,M
Boys,99.79,5,Cade Clinton,Carthage,97.89,149.69,113.4,183.7,446.79,Single-ply,SBD,M
Boys,109.77,6,Garrett Harvey,Carthage,99.97,181.44,108.86,151.95,442.25,Single-ply,SBD,M
Boys,99.79,7,Deshanti Holloway,Atlanta,90.72,165.56,81.65,172.37,419.57,Single-ply,SBD,M
Boys,99.79,8,Anthony Munoz,White Oak,91.63,161.03,81.65,163.29,405.97,Single-ply,SBD,M
Boys,99.79,9,Chris Meyers,White Oak,92.08,158.76,81.65,165.56,405.97,Single-ply,SBD,M
Boys,99.79,10,Will Harris,Carthage,99.7,147.42,86.18,165.56,399.16,Single-ply,SBD,M
Boys,99.79,11,Jonathan Stanton,Atlanta,94.8,142.88,79.38,163.29,385.55,Single-ply,SBD,M
Boys,99.79,12,Brandon Halcumb,Carthage,93.44,142.88,102.06,138.35,383.29,Single-ply,SBD,M
Boys,99.79,13,Trey Chain,White Oak,99.34,131.54,86.18,142.88,360.61,Single-ply,SBD,M
Boys,99.79,14,Robert Earnhart,Atlanta,98.88,120.2,86.18,145.15,351.53,Single-ply,SBD,M
Boys,99.79,15,River Barrios,Hallsville,92.99,174.63,,165.56,340.19,Single-ply,SD,M
Boys,99.79,16,Ranzy Armstrong,Carthage,91.44,124.74,90.72,117.93,333.39,Single-ply,SBD,M
Boys,99.79,17,Justin Smith #22,Hallsville,99.34,,117.93,176.9,294.84,Single-ply,BD,M
Boys,99.79,18,Brandon Hosey,Hallsville,95.25,,,147.42,147.42,Single-ply,D,M
Boys,109.77,1,Joey Lenard,Atlanta,106.14,195.04,124.74,215.46,535.24,Single-ply,SBD,M
Boys,109.77,2,Jeff Davis,White Oak,108.41,204.12,115.67,204.12,523.9,Single-ply,SBD,M
Boys,109.77,3,Tray King,Hallsville,102.06,195.04,127.01,199.58,521.63,Single-ply,SBD,M
Boys,109.77,4,Mario McCain,Carthage,103.33,185.97,131.54,174.63,492.15,Single-ply,SBD,M
Boys,109.77,5,Jason Heim,White Oak,107.05,190.51,104.33,188.24,483.08,Single-ply,SBD,M
Boys,109.77,6,Micheal Wilbur,Hallsville,106.14,174.63,133.81,158.76,467.2,Single-ply,SBD,M
Boys,109.77,7,Dylan Hugar,Carthage,103.69,156.49,95.25,149.69,401.43,Single-ply,SBD,M
Boys,109.77,8,William Ruley,Atlanta,105.69,147.42,90.72,127.01,365.14,Single-ply,SBD,M
Boys,109.77,9,Jordan Edgar,Hallsville,106.14,145.15,,170.1,315.25,Single-ply,SD,M
Boys,109.77,10,Thorn Berry,Hallsville,106.14,147.42,,165.56,312.98,Single-ply,SD,M
Boys,109.77,11,Trey Worrell,Hallsville,106.14,124.74,,154.22,278.96,Single-ply,SD,M
Boys,124.74,1,Brandon Parkman,Atlanta,112.49,192.78,120.2,190.51,503.49,Single-ply,SBD,M
Boys,124.74,2,Dexter Clough,Carthage,122.38,179.17,136.08,181.44,496.68,Single-ply,SBD,M
Boys,124.74,3,Lucas Roberts,Hallsville,112.04,185.97,108.86,179.17,474,Single-ply,SBD,M
Boys,124.74,4,Elises Mireles,Big Sandy Harmony,123.38,199.58,108.86,163.29,471.74,Single-ply,SBD,M
Boys,124.74,5,Lyle Owens,White Oak,111.58,136.08,104.33,124.74,365.14,Single-ply,SBD,M
Boys,124.74,6,Carlton Hasten,Hallsville,112.49,108.86,72.57,136.08,317.51,Single-ply,SBD,M
Boys,124.74+,1,Kason Willis,Atlanta,129.73,206.38,113.4,217.72,537.51,Single-ply,SBD,M
Boys,124.74+,2,Griffin Bankhead,Carthage,128.64,163.29,106.59,172.37,442.25,Single-ply,SBD,M
