Division,WeightClassKg,Place,Name,Team,BodyweightKg,Best3SquatKg,Best3BenchKg,Best3DeadliftKg,TotalKg,Equipment,Event,Sex,BirthDate
Boys,51.71,1,Alfred Garcia,San Antonio Southwest,51.35,158.76,83.91,172.37,415.04,Single-ply,SBD,M,
Boys,51.71,2,Mason Falcone,Comal Davenport,48.17,113.4,63.5,136.08,312.98,Single-ply,SBD,M,
Boys,55.79,1,Colton Brown,Jourdanton,55.07,124.74,65.77,136.08,326.59,Single-ply,SBD,M,
Boys,55.79,2,Connor Starjak,Comal Davenport,55.16,106.59,74.84,136.08,317.51,Single-ply,SBD,M,
Boys,55.79,3,Grant Griffin,San Antonio Southwest,54.7,111.13,70.31,120.2,301.64,Single-ply,SBD,M,
Boys,55.79,DQ,Christopher Loera,San Antonio Kennedy,55.7,,,,,Single-ply,SBD,M,
Boys,55.79,DQ,Jonah Lopez,San Antonio Memorial,53.98,,,,,Single-ply,SBD,M,
Boys,59.87,1,Valdemar Herrera,Pleasanton,59.24,113.4,86.18,138.35,337.93,Single-ply,SBD,M,
Boys,59.87,2,Jocivus Lopez,Jourdanton,58.42,115.67,81.65,136.08,333.39,Single-ply,SBD,M,
Boys,59.87,3,Sebastian Lleverino,Marion,57.24,56.7,34.02,83.91,174.63,Single-ply,SBD,M,
Boys,59.87,DQ,Martin Gonzalez,San Antonio Southside,59.51,,,,,Single-ply,SBD,M,
Boys,67.13,1,Nacious Jaquez,San Antonio Kennedy,66.22,188.24,117.93,201.85,508.02,Single-ply,SBD,M,
Boys,67.13,2,Braxton Springer,Pleasanton,66.41,190.51,106.59,204.12,501.22,Single-ply,SBD,M,
Boys,67.13,3,Jayden Cruz,San Antonio Southwest,65.41,185.97,111.13,156.49,453.59,Single-ply,SBD,M,
Boys,67.13,4,Brian Guillen,San Antonio Southside,65.59,170.1,104.33,151.95,426.38,Single-ply,SBD,M,
Boys,67.13,5,Kaydin Olle,Pleasanton,62.87,138.35,95.25,151.95,385.55,Single-ply,SBD,M,
Boys,67.13,6,Andres Garcia,Comal Davenport,61.33,120.2,70.31,131.54,322.05,Single-ply,SBD,M,
Boys,67.13,7,Evan Hage,Marion,66.13,97.52,45.36,111.13,254.01,Single-ply,SBD,M,
Boys,74.84,1,Luke Fanno,Jourdanton,69.22,206.38,124.74,215.46,546.58,Single-ply,SBD,M,
Boys,74.84,2,Jaxon Joudah,Comal Davenport,71.76,183.7,111.13,188.24,483.08,Single-ply,SBD,M,
Boys,74.84,3,Aaron Davis,Universal City Randolph,73.84,183.7,97.52,183.7,464.93,Single-ply,SBD,M,
Boys,74.84,4,Sergio Garcia,San Antonio Southwest,68.49,170.1,129.27,161.03,460.4,Single-ply,SBD,M,
Boys,74.84,5,Chris Cannedy,Universal City Randolph,73.94,167.83,88.45,183.7,439.98,Single-ply,SBD,M,
Boys,74.84,6,Patrick Hecox,Comal Davenport,69.04,151.95,120.2,156.49,428.64,Single-ply,SBD,M,
Boys,74.84,7,Fernando Casas,San Antonio Kennedy,69.85,142.88,88.45,190.51,421.84,Single-ply,SBD,M,
Boys,74.84,8,Daniel Min,Universal City Randolph,72.48,167.83,99.79,149.69,417.3,Single-ply,SBD,M,
Boys,74.84,9,Rhys Bray,Universal City Randolph,73.3,158.76,83.91,174.63,417.3,Single-ply,SBD,M,
Boys,74.84,10,Bobby Watkins,San Antonio Kennedy,67.59,142.88,77.11,185.97,405.97,Single-ply,SBD,M,
Boys,74.84,11,Roman Martinez,Pleasanton,68.13,149.69,92.99,156.49,399.16,Single-ply,SBD,M,
Boys,74.84,12,Joseph Starjack,Comal Davenport,69.22,122.47,88.45,163.29,374.21,Single-ply,SBD,M,
Boys,74.84,13,Broc Birdwell,Marion,74.21,147.42,74.84,142.88,365.14,Single-ply,SBD,M,
Boys,74.84,14,Brett Shibiliski,Universal City Randolph,72.67,131.54,70.31,149.69,351.53,Single-ply,SBD,M,
Boys,74.84,15,Reagan Gonzales,San Antonio Southwest,70.22,120.2,77.11,142.88,340.19,Single-ply,SBD,M,
Boys,74.84,DQ,Randy Contreras,San Antonio Kennedy,71.76,,,,,Single-ply,SBD,M,
Boys,82.1,1,Chris Verdin,Jourdanton,80.83,283.5,176.9,254.01,714.41,Single-ply,SBD,M,
Boys,82.1,2,Timothy Donihoo,Yoakum,80.38,183.7,111.13,201.85,496.68,Single-ply,SBD,M,
Boys,82.1,3,Langston Strable,Universal City Randolph,79.11,190.51,99.79,190.51,480.81,Single-ply,SBD,M,
Boys,82.1,4,Judge Erickson,Comal Davenport,77.47,167.83,95.25,167.83,430.91,Single-ply,SBD,M,
Boys,82.1,5,Donovan Kirby,Comal Davenport,74.93,165.56,72.57,183.7,421.84,Single-ply,SBD,M,
Boys,89.81,1,Nathaniel Arias,Jourdanton,83.55,247.21,163.29,242.67,653.17,Single-ply,SBD,M,
Boys,89.81,2,Danilo Lugo,Jourdanton,89.45,233.6,133.81,238.14,605.55,Single-ply,SBD,M,
Boys,89.81,3,Padway Nunez,Universal City Randolph,86.27,204.12,127.01,195.04,526.17,Single-ply,SBD,M,
Boys,89.81,4,Xavier Tijerina,Jourdanton,87.54,188.24,129.27,206.38,523.9,Single-ply,SBD,M,
Boys,89.81,5,Ezekial Gonzalez,Pleasanton,88.99,201.85,117.93,181.44,501.22,Single-ply,SBD,M,
Boys,89.81,6,Hudson McKendrick,San Antonio Southwest,82.64,183.7,124.74,183.7,492.15,Single-ply,SBD,M,
Boys,89.81,7,Ivan Perez,Pleasanton,87.63,158.76,122.47,197.31,478.54,Single-ply,SBD,M,
Boys,89.81,8,Tristan Dennie,San Antonio Southwest,89.63,170.1,117.93,183.7,471.74,Single-ply,SBD,M,
Boys,89.81,9,Kamren Meyer,Yoakum,89.45,122.47,86.18,136.08,344.73,Single-ply,SBD,M,
Boys,89.81,10,Robert Valencia,Universal City Randolph,87.18,127.01,77.11,138.35,342.46,Single-ply,SBD,M,
Boys,89.81,11,Jack Meyer,Yoakum,88.72,115.67,70.31,127.01,312.98,Single-ply,SBD,M,
Boys,99.79,1,Nathan Min,Universal City Randolph,95.53,213.19,131.54,190.51,535.24,Single-ply,SBD,M,
Boys,99.79,2,Justin Dehoyos,Marion,91.53,183.7,106.59,197.31,487.61,Single-ply,SBD,M,
Boys,99.79,3,Vincent Fedorick,San Antonio Southwest,95.8,183.7,117.93,185.97,487.61,Single-ply,SBD,M,
Boys,99.79,4,Cooper Awbrey,Jourdanton,89.9,174.63,120.2,183.7,478.54,Single-ply,SBD,M,
Boys,99.79,5,Kyle Romans,Universal City Randolph,97.79,174.63,111.13,179.17,464.93,Single-ply,SBD,M,
Boys,99.79,6,Donovan Peters,Universal City Randolph,90.63,185.97,88.45,185.97,460.4,Single-ply,SBD,M,
Boys,99.79,7,Peti Valai,Universal City Randolph,94.62,190.51,104.33,163.29,458.13,Single-ply,SBD,M,
Boys,99.79,8,Elijah Cantu,San Antonio Southside,98.25,170.1,102.06,149.69,421.84,Single-ply,SBD,M,
Boys,109.77,1,Clark Griffin,San Antonio Southwest,100.24,294.84,165.56,272.16,732.55,Single-ply,SBD,M,
Boys,109.77,2,Adan Rodriguez,Comal Davenport,106.96,244.94,158.76,233.6,637.3,Single-ply,SBD,M,
Boys,109.77,3,Mauricio Pecina,Yoakum,104.05,256.28,151.95,210.92,619.15,Single-ply,SBD,M,
Boys,109.77,4,Gabriel Arguijo,Jourdanton,107.23,210.92,115.67,213.19,539.77,Single-ply,SBD,M,
Boys,109.77,5,Anthony Rodriguez,Comal Davenport,101.6,201.85,127.01,201.85,530.7,Single-ply,SBD,M,
Boys,109.77,6,Stephen West,Pleasanton,106.68,192.78,129.27,179.17,501.22,Single-ply,SBD,M,
Boys,109.77,7,Jorge Perez,Comal Davenport,105.14,149.69,79.38,176.9,405.97,Single-ply,SBD,M,
Boys,124.74,1,Reymundo Arellano,San Antonio Memorial,112.4,258.55,136.08,222.26,616.89,Single-ply,SBD,M,
Boys,124.74,2,Alex Aguilar #3,Marion,118.12,238.14,138.35,226.8,603.28,Single-ply,SBD,M,
Boys,124.74,3,Sebastian Aguilar,Pleasanton,122.56,249.48,124.74,208.65,582.87,Single-ply,SBD,M,
Boys,124.74,4,David Narvaez,San Antonio Memorial,112.4,226.8,138.35,195.04,560.19,Single-ply,SBD,M,
Boys,124.74,5,Andrew Murillo,Pleasanton,114.49,238.14,133.81,188.24,560.19,Single-ply,SBD,M,
Boys,124.74,6,Michael Leaming,San Antonio Southwest,122.2,217.72,122.47,174.63,514.83,Single-ply,SBD,M,
Boys,124.74,7,Emiliano Prieto,Comal Davenport,119.11,206.38,102.06,165.56,474,Single-ply,SBD,M,
Boys,124.74,8,Dylon Alvis,Marion,111.67,65.77,83.91,142.88,292.57,Single-ply,SBD,M,
Boys,139.71,1,Bode Walters,Marion,132.81,317.51,176.9,231.33,725.75,Single-ply,SBD,M,
Boys,139.71,2,Diego Valdez,Pleasanton,135.9,260.82,179.17,233.6,673.58,Single-ply,SBD,M,
Boys,139.71,3,Adam Delgado,San Antonio Southwest,130.45,226.8,129.27,226.8,582.87,Single-ply,SBD,M,
Boys,139.71,4,Caleb Galindo,Jourdanton,129.46,204.12,161.03,195.04,560.19,Single-ply,SBD,M,
Boys,139.71,5,Manual Reyna,San Antonio Kennedy,130.54,217.72,106.59,192.78,517.1,Single-ply,SBD,M,
Boys,139.71,6,Malachi Mixion,Jourdanton,127.82,142.88,90.72,158.76,392.36,Single-ply,SBD,M,
Boys,139.71,DQ,Nick Rodriguez,San Antonio Kennedy,132.72,,,,,Single-ply,SBD,M,
Boys,139.71+,1,Ivan Garcia,San Antonio Memorial,140.52,281.23,167.83,233.6,682.66,Single-ply,SBD,M,
Boys,139.71+,2,Manuel Belmarez,San Antonio Memorial,143.52,249.48,154.22,201.85,605.55,Single-ply,SBD,M,
Boys,139.71+,3,Jaidyn Birts,San Antonio Southwest,147.69,226.8,149.69,208.65,585.13,Single-ply,SBD,M,
