Division,WeightClassKg,Place,Name,Team,BodyweightKg,Best3SquatKg,Best3BenchKg,Best3DeadliftKg,TotalKg,Equipment,Event,Sex,BirthDate
Boys,59.87,1,Richard Berlanga,Eustace,56.97,97.52,61.23,86.18,244.94,Single-ply,SBD,M,
Boys,67.13,1,Cross Elizardo,Argyle,65.14,165.56,79.38,165.56,410.5,Single-ply,SBD,M,
Boys,67.13,2,Ben Zeleta,Scurry-Rosser,59.96,131.54,72.57,140.61,344.73,Single-ply,SBD,M,
Boys,67.13,3,Hayden Pruitt,Scurry-Rosser,64.14,102.06,72.57,102.06,276.69,Single-ply,SBD,M,
Boys,67.13,4,Blake Scott,Eustace,63.41,92.99,70.31,102.06,265.35,Single-ply,SBD,M,
Boys,67.13,5,Simon Zeleta,Scurry-Rosser,62.14,97.52,47.63,106.59,251.74,Single-ply,SBD,M,
Boys,74.84,1,Mark Castle,Argyle,74.3,201.85,83.91,219.99,505.76,Single-ply,SBD,M,
Boys,74.84,2,Kase Mumphrey,Crandall,73.84,174.63,106.59,185.97,467.2,Single-ply,SBD,M,
Boys,74.84,3,Logan Baker,Eustace,72.57,174.63,108.86,181.44,464.93,Single-ply,SBD,M,
Boys,74.84,4,Rufino Medrano,Crandall,72.57,120.2,83.91,133.81,337.93,Single-ply,SBD,M,
Boys,74.84,5,Jamison Starrett,Crandall,73.03,106.59,77.11,149.69,333.39,Single-ply,SBD,M,
Boys,74.84,6,Cash Crews,Scurry-Rosser,68.58,106.59,68.04,120.2,294.84,Single-ply,SBD,M,
Boys,82.1,1,Cayden Goodall,Crandall,76.84,170.1,117.93,215.46,503.49,Single-ply,SBD,M,
Boys,82.1,2,Aaron Gomez,Argyle,77.2,165.56,147.42,183.7,496.68,Single-ply,SBD,M,
Boys,82.1,3,Jordan Faz,Eustace,82.01,163.29,102.06,158.76,424.11,Single-ply,SBD,M,
Boys,82.1,4,Josh Onourah,Crandall,76.66,151.95,102.06,165.56,419.57,Single-ply,SBD,M,
Boys,82.1,5,Vilmer Zamaron,Crandall,79.11,147.42,81.65,149.69,378.75,Single-ply,SBD,M,
Boys,82.1,6,John Hurt,Argyle,78.11,133.81,61.23,165.56,360.61,Single-ply,SBD,M,
Boys,89.81,1,Reggie Williams,Crandall,89.27,226.8,142.88,235.87,605.55,Single-ply,SBD,M,
Boys,89.81,2,Brian Ochoa,Scurry-Rosser,87.91,172.37,122.47,190.51,485.34,Single-ply,SBD,M,
Boys,89.81,3,Caden Yates,Argyle,86.91,183.7,92.99,206.38,483.08,Single-ply,SBD,M,
Boys,89.81,4,Austin Shackleford,Crandall,85.73,147.42,102.06,190.51,439.98,Single-ply,SBD,M,
Boys,99.79,1,Coleman LeCour,Scurry-Rosser,91.81,158.76,92.99,163.29,415.04,Single-ply,SBD,M,
Boys,99.79,2,Beau Crews,Scurry-Rosser,97.98,147.42,106.59,151.95,405.97,Single-ply,SBD,M,
Boys,99.79,3,Jake Hartjen,Argyle,97.07,133.81,74.84,151.95,360.61,Single-ply,SBD,M,
Boys,99.79,4,Gabriel Wilkens,Crandall,96.07,115.67,79.38,142.88,337.93,Single-ply,SBD,M,
Boys,109.77,1,Tommy McLaughlin,Crandall,104.96,161.03,92.99,165.56,419.57,Single-ply,SBD,M,
Boys,109.77,2,Raymond Martinich,Argyle,107.32,165.56,81.65,151.95,399.16,Single-ply,SBD,M,
Boys,109.77,3,Hunter Bartram,Argyle,106.14,151.95,86.18,142.88,381.02,Single-ply,SBD,M,
Boys,109.77,4,Adan Maltos,Eustace,102.87,154.22,,133.81,288.03,Single-ply,SD,M,
Boys,124.74,1,Ryan Faulk,Crandall,124.1,185.97,127.01,195.04,508.02,Single-ply,SBD,M,
Boys,124.74,2,Tytus Daugherty,Crandall,111.77,197.31,102.06,206.38,505.76,Single-ply,SBD,M,
Boys,124.74,3,Tyler Roberts,Argyle,120.93,142.88,74.84,183.7,401.43,Single-ply,SBD,M,
Boys,124.74,4,Colton Carpenter,Eustace,122.92,122.47,86.18,133.81,342.46,Single-ply,SBD,M,
Boys,124.74,5,Ranger McKee,Eustace,119.66,106.59,65.77,133.81,306.17,Single-ply,SBD,M,
Boys,139.71,1,David French,Eustace,126.01,226.8,145.15,226.8,598.74,Single-ply,SBD,M,
Boys,139.71,2,Thor Johansson,Argyle,126.01,183.7,102.06,183.7,469.47,Single-ply,SBD,M,
Boys,139.71,3,Tyler West,Scurry-Rosser,126.73,170.1,113.4,176.9,460.4,Single-ply,SBD,M,
Boys,139.71,4,Hunter Lane,Eustace,135.81,142.88,,142.88,285.76,Single-ply,SD,M,
